{
    "req": "http://",
    "resp": {
        "offset": 1,
        "limit": 20,
        "count": 100,
        "next": "http://"
    },
    "data": {
        "uids": [
            "studyUID_seriesUID_instanceUID"
        ],
        "list": [
            {
                "apath": [
                    "aaaaaaaa.bbbbbbbb",
                    "cccccccc",
                    "dddddddd",
                    "eeeeeeee"
                ],
                "value": [
                    "X^Y",
                    6,
                    null,
                    {"bulkdataURI": "http://"}
                ]
            }
        ],
        "module1": [
            {
                "apath": ["00100010"],
                "value": ["X^Y"]
            }
        ]
    },
    "dict": {
        "tag": ["00100010"],
        "vr": ["PN"],
        "key": ["PatientName"]
    }
}